{
  "name": "generate-ui-pages",
  "$schema": "../../node_modules/nx/schemas/project-schema.json",
  "sourceRoot": "apps/generate-ui-pages/src",
  "projectType": "application",
  "targets": {
    "build": {
      "executor": "@nx/esbuild:esbuild",
      "outputs": ["{options.outputPath}"],
      "defaultConfiguration": "production",
      "options": {
        "platform": "node",
        "outputPath": "dist/apps/generate-ui-pages",
        "format": ["cjs"],
        "bundle": true,
        "main": "apps/generate-ui-pages/src/main.ts",
        "tsConfig": "apps/generate-ui-pages/tsconfig.app.json",
        "assets": ["apps/generate-ui-pages/src/assets"],
        "generatePackageJson": true,
        "esbuildOptions": {
          "sourcemap": true,
          "outExtension": {
            ".js": ".js"
          }
        }
      },
      "configurations": {
        "development": {},
        "production": {
          "esbuildOptions": {
            "sourcemap": false,
            "outExtension": {
              ".js": ".js"
            }
          }
        }
      }
    },
    "serve": {
      "executor": "nx:run-commands",
      "defaultConfiguration": "development",
      "options": {
        "buildTarget": "generate-ui-pages:build"
      },
      "dependsOn": ["^build", "build"],
      "configurations": {
        "development": {
          "cwd": ".",
          "command": "node ./dist/apps/generate-ui-pages/main.js"
        },
        "production": {
          "cwd": ".",
          "command": "node ./dist/apps/generate-ui-pages/main.js"
        }
      }
    },
    "lint": {
      "executor": "@nx/linter:eslint",
      "outputs": ["{options.outputFile}"],
      "options": {
        "lintFilePatterns": ["apps/generate-ui-pages/**/*.ts"]
      }
    },
    "test": {
      "executor": "@nx/jest:jest",
      "outputs": ["{workspaceRoot}/coverage/{projectRoot}"],
      "options": {
        "jestConfig": "apps/generate-ui-pages/jest.config.ts",
        "passWithNoTests": true
      },
      "configurations": {
        "ci": {
          "ci": true,
          "codeCoverage": true
        }
      }
    }
  },
  "tags": []
}
